Introduction to biostatistics
…
```r
diff <- data_no_outlier %>%
  group_by(id) %>%
  mutate(diff = score[which(week==7)] - score[which(week==0)]) %>%
  select(id, group, diff)

diff
```

```
## # A tibble: 120 × 3
## # Groups:   id [15]
##       id group  diff
##    <dbl> <fct> <dbl>
##  1     1 Exp      45
##  2     1 Exp      45
##  3     1 Exp      45
##  4     1 Exp      45
##  5     1 Exp      45
##  6     1 Exp      45
##  7     1 Exp      45
##  8     1 Exp      45
##  9     2 Exp      30
## 10     2 Exp      30
## # … with 110 more rows
```
